<svg viewBox="0 0 76 76">
  <path d="M16.5 57c-.3 0-.5-.1-.7-.3-.4-.4-.4-1 0-1.4L29 42 15.8 28.7c-.4-.4-.4-1 0-1.4.4-.4 1-.4 1.4 0l14 14c.2.2.3.5.3.7s-.1.5-.3.7l-14 14c-.2.2-.4.3-.7.3zm33.1 0H37.4c-.5 0-.9-.4-.9-1s.4-1 .9-1h12.1c.5 0 .9.4.9 1s-.3 1-.8 1z"/>
  <path d="M61.8 9.6h-5.9C55.2 4.2 50.6 0 45 0c-6.1 0-11 4.9-11 11s4.9 11 11 11c5.8 0 10.6-4.6 11-10.4h5.8c1.2 0 2.2 1 2.2 2.2v57.9c0 1.2-1 2.2-2.2 2.2H4.2C3 74 2 73 2 71.8V13.9c0-1.2 1-2.2 2.2-2.2h14.7c.5 0 1-.4 1-1s-.4-1-1-1H4.2C1.9 9.6 0 11.5 0 13.9v57.9C0 74.1 1.9 76 4.2 76h57.6c2.3 0 4.2-1.9 4.2-4.2V13.9c0-2.4-1.9-4.3-4.2-4.3zM45 20c-5 0-9-4-9-9s4-9 9-9 9 4 9 9-4 9-9 9z"/>
</svg>
